<svg width="17" height="18" viewBox="0 0 17 18" fill="none" xmlns="http://www.w3.org/2000/svg">
<path d="M2.70274 0.631348C2.58071 0.631348 2.48274 0.730176 2.48274 0.851348V1.29135H1.99118C0.928135 1.29135 0.0627441 2.15674 0.0627441 3.22064V16.7489C0.0627441 17.2027 0.431416 17.5713 0.885166 17.5713H15.3553C15.7781 17.5713 16.1227 17.2276 16.1227 16.8039V3.22064C16.1227 2.15674 15.2574 1.29135 14.1943 1.29135H13.7027V0.851348C13.7027 0.730176 13.6048 0.631348 13.4827 0.631348C13.3607 0.631348 13.2627 0.730176 13.2627 0.851348V1.29135H12.1627V0.851348C12.1627 0.730176 12.0648 0.631348 11.9427 0.631348C11.8207 0.631348 11.7227 0.730176 11.7227 0.851348V1.29135H10.6227V0.851348C10.6227 0.730176 10.5248 0.631348 10.4027 0.631348C10.2807 0.631348 10.1827 0.730176 10.1827 0.851348V1.29135H9.08274V0.851348C9.08274 0.730176 8.98478 0.631348 8.86274 0.631348C8.74071 0.631348 8.64274 0.730176 8.64274 0.851348V1.29135H7.54274V0.851348C7.54274 0.730176 7.44478 0.631348 7.32274 0.631348C7.20071 0.631348 7.10274 0.730176 7.10274 0.851348V1.29135H6.00274V0.851348C6.00274 0.730176 5.90478 0.631348 5.78274 0.631348C5.66071 0.631348 5.56274 0.730176 5.56274 0.851348V1.29135H4.46274V0.851348C4.46274 0.730176 4.36478 0.631348 4.24274 0.631348C4.12071 0.631348 4.02274 0.730176 4.02274 0.851348V1.29135H2.92274V0.851348C2.92274 0.730176 2.82478 0.631348 2.70274 0.631348ZM1.99118 1.73135H2.48274V2.17135C2.48274 2.29252 2.58071 2.39135 2.70274 2.39135C2.82478 2.39135 2.92274 2.29252 2.92274 2.17135V1.73135H4.02274V2.17135C4.02274 2.29252 4.12071 2.39135 4.24274 2.39135C4.36478 2.39135 4.46274 2.29252 4.46274 2.17135V1.73135H5.56274V2.17135C5.56274 2.29252 5.66071 2.39135 5.78274 2.39135C5.90478 2.39135 6.00274 2.29252 6.00274 2.17135V1.73135H7.10274V2.17135C7.10274 2.29252 7.20071 2.39135 7.32274 2.39135C7.44478 2.39135 7.54274 2.29252 7.54274 2.17135V1.73135H8.64274V2.17135C8.64274 2.29252 8.74071 2.39135 8.86274 2.39135C8.98478 2.39135 9.08274 2.29252 9.08274 2.17135V1.73135H10.1827V2.17135C10.1827 2.29252 10.2807 2.39135 10.4027 2.39135C10.5248 2.39135 10.6227 2.29252 10.6227 2.17135V1.73135H11.7227V2.17135C11.7227 2.29252 11.8207 2.39135 11.9427 2.39135C12.0648 2.39135 12.1627 2.29252 12.1627 2.17135V1.73135H13.2627V2.17135C13.2627 2.29252 13.3607 2.39135 13.4827 2.39135C13.6048 2.39135 13.7027 2.29252 13.7027 2.17135V1.73135H14.1934C15.0142 1.73135 15.6827 2.39908 15.6827 3.22064V4.81135H14.9127C14.8517 4.81135 14.8027 4.86033 14.8027 4.92135C14.8027 4.98236 14.8517 5.03135 14.9127 5.03135H15.6827V16.8039C15.6827 16.9844 15.5358 17.1313 15.3553 17.1313H0.885166C0.67376 17.1313 0.502744 16.9603 0.502744 16.7489V5.03135H13.5927C13.6538 5.03135 13.7027 4.98236 13.7027 4.92135C13.7027 4.86033 13.6538 4.81135 13.5927 4.81135H0.502744V3.22064C0.502744 2.39908 1.17048 1.73135 1.99118 1.73135ZM2.37274 2.61135C2.06938 2.61135 1.82274 2.85799 1.82274 3.16135C1.82274 3.46471 2.06938 3.71135 2.37274 3.71135C2.6761 3.71135 2.92274 3.46471 2.92274 3.16135C2.92274 2.85799 2.6761 2.61135 2.37274 2.61135ZM13.8127 2.61135C13.5094 2.61135 13.2627 2.85799 13.2627 3.16135C13.2627 3.46471 13.5094 3.71135 13.8127 3.71135C14.1161 3.71135 14.3627 3.46471 14.3627 3.16135C14.3627 2.85799 14.1161 2.61135 13.8127 2.61135ZM2.37274 2.83135C2.55493 2.83135 2.70274 2.97916 2.70274 3.16135C2.70274 3.34353 2.55493 3.49135 2.37274 3.49135C2.19056 3.49135 2.04274 3.34353 2.04274 3.16135C2.04274 2.97916 2.19056 2.83135 2.37274 2.83135ZM13.8127 2.83135C13.9949 2.83135 14.1427 2.97916 14.1427 3.16135C14.1427 3.34353 13.9949 3.49135 13.8127 3.49135C13.6306 3.49135 13.4827 3.34353 13.4827 3.16135C13.4827 2.97916 13.6306 2.83135 13.8127 2.83135ZM14.0327 4.81135C13.9717 4.81135 13.9227 4.86033 13.9227 4.92135C13.9227 4.98236 13.9717 5.03135 14.0327 5.03135H14.4727C14.5338 5.03135 14.5827 4.98236 14.5827 4.92135C14.5827 4.86033 14.5338 4.81135 14.4727 4.81135H14.0327ZM5.01274 7.01135C4.95173 7.01135 4.90274 7.06033 4.90274 7.12135C4.90274 7.18236 4.95173 7.23135 5.01274 7.23135H5.34274V8.33135H4.24274V7.78135C4.24274 7.72033 4.19376 7.67135 4.13274 7.67135C4.07173 7.67135 4.02274 7.72033 4.02274 7.78135V8.44135C4.02274 8.50236 4.07173 8.55135 4.13274 8.55135H5.45274C5.51376 8.55135 5.56274 8.50236 5.56274 8.44135V7.12135C5.56274 7.06033 5.51376 7.01135 5.45274 7.01135H5.01274ZM6.33274 7.01135C6.27173 7.01135 6.22274 7.06033 6.22274 7.12135V8.44135C6.22274 8.50236 6.27173 8.55135 6.33274 8.55135H7.65274C7.71376 8.55135 7.76274 8.50236 7.76274 8.44135V7.12135C7.76274 7.06033 7.71376 7.01135 7.65274 7.01135H6.33274ZM8.53274 7.01135C8.47173 7.01135 8.42274 7.06033 8.42274 7.12135V8.44135C8.42274 8.50236 8.47173 8.55135 8.53274 8.55135H9.85274C9.91376 8.55135 9.96274 8.50236 9.96274 8.44135V7.12135C9.96274 7.06033 9.91376 7.01135 9.85274 7.01135H8.53274ZM10.7327 7.01135C10.6717 7.01135 10.6227 7.06033 10.6227 7.12135V8.44135C10.6227 8.50236 10.6717 8.55135 10.7327 8.55135H12.0527C12.1138 8.55135 12.1627 8.50236 12.1627 8.44135V7.12135C12.1627 7.06033 12.1138 7.01135 12.0527 7.01135H10.7327ZM12.9327 7.01135C12.8717 7.01135 12.8227 7.06033 12.8227 7.12135V8.44135C12.8227 8.50236 12.8717 8.55135 12.9327 8.55135H14.2527C14.3138 8.55135 14.3627 8.50236 14.3627 8.44135V7.12135C14.3627 7.06033 14.3138 7.01135 14.2527 7.01135H12.9327ZM6.44274 7.23135H7.54274V8.33135H6.44274V7.23135ZM8.64274 7.23135H9.74274V8.33135H8.64274V7.23135ZM10.8427 7.23135H11.9427V8.33135H10.8427V7.23135ZM13.0427 7.23135H14.1427V8.33135H13.0427V7.23135ZM1.93274 9.21135C1.87173 9.21135 1.82274 9.26033 1.82274 9.32135V10.6413C1.82274 10.7024 1.87173 10.7513 1.93274 10.7513H3.25274C3.31376 10.7513 3.36274 10.7024 3.36274 10.6413V9.32135C3.36274 9.26033 3.31376 9.21135 3.25274 9.21135H1.93274ZM4.13274 9.21135C4.07173 9.21135 4.02274 9.26033 4.02274 9.32135V10.6413C4.02274 10.7024 4.07173 10.7513 4.13274 10.7513H5.45274C5.51376 10.7513 5.56274 10.7024 5.56274 10.6413V9.32135C5.56274 9.26033 5.51376 9.21135 5.45274 9.21135H4.13274ZM6.33274 9.21135C6.27173 9.21135 6.22274 9.26033 6.22274 9.32135V10.6413C6.22274 10.7024 6.27173 10.7513 6.33274 10.7513H7.65274C7.71376 10.7513 7.76274 10.7024 7.76274 10.6413V9.32135C7.76274 9.26033 7.71376 9.21135 7.65274 9.21135H6.33274ZM8.53274 9.21135C8.47173 9.21135 8.42274 9.26033 8.42274 9.32135V10.6413C8.42274 10.7024 8.47173 10.7513 8.53274 10.7513H9.85274C9.91376 10.7513 9.96274 10.7024 9.96274 10.6413V9.32135C9.96274 9.26033 9.91376 9.21135 9.85274 9.21135H8.53274ZM10.7327 9.21135C10.6717 9.21135 10.6227 9.26033 10.6227 9.32135V10.6413C10.6227 10.7024 10.6717 10.7513 10.7327 10.7513H12.0527C12.1138 10.7513 12.1627 10.7024 12.1627 10.6413V9.32135C12.1627 9.26033 12.1138 9.21135 12.0527 9.21135H10.7327ZM12.9327 9.21135C12.8717 9.21135 12.8227 9.26033 12.8227 9.32135V10.6413C12.8227 10.7024 12.8717 10.7513 12.9327 10.7513H14.2527C14.3138 10.7513 14.3627 10.7024 14.3627 10.6413V9.32135C14.3627 9.26033 14.3138 9.21135 14.2527 9.21135H12.9327ZM2.04274 9.43135H3.14274V10.5313H2.04274V9.43135ZM4.24274 9.43135H5.34274V10.5313H4.24274V9.43135ZM6.44274 9.43135H7.54274V10.5313H6.44274V9.43135ZM8.64274 9.43135H9.74274V10.5313H8.64274V9.43135ZM10.8427 9.43135H11.9427V10.5313H10.8427V9.43135ZM13.0427 9.43135H14.1427V10.5313H13.0427V9.43135ZM1.93274 11.4113C1.87173 11.4113 1.82274 11.4603 1.82274 11.5213V12.8413C1.82274 12.9024 1.87173 12.9513 1.93274 12.9513H3.25274C3.31376 12.9513 3.36274 12.9024 3.36274 12.8413V11.5213C3.36274 11.4603 3.31376 11.4113 3.25274 11.4113H1.93274ZM4.13274 11.4113C4.07173 11.4113 4.02274 11.4603 4.02274 11.5213V12.8413C4.02274 12.9024 4.07173 12.9513 4.13274 12.9513H5.45274C5.51376 12.9513 5.56274 12.9024 5.56274 12.8413V11.5213C5.56274 11.4603 5.51376 11.4113 5.45274 11.4113H4.13274ZM6.33274 11.4113C6.27173 11.4113 6.22274 11.4603 6.22274 11.5213V12.8413C6.22274 12.9024 6.27173 12.9513 6.33274 12.9513H7.65274C7.71376 12.9513 7.76274 12.9024 7.76274 12.8413V11.5213C7.76274 11.4603 7.71376 11.4113 7.65274 11.4113H6.33274ZM8.53274 11.4113C8.47173 11.4113 8.42274 11.4603 8.42274 11.5213V12.8413C8.42274 12.9024 8.47173 12.9513 8.53274 12.9513H9.85274C9.91376 12.9513 9.96274 12.9024 9.96274 12.8413V11.5213C9.96274 11.4603 9.91376 11.4113 9.85274 11.4113H8.53274ZM10.7327 11.4113C10.6717 11.4113 10.6227 11.4603 10.6227 11.5213V12.8413C10.6227 12.9024 10.6717 12.9513 10.7327 12.9513H12.0527C12.1138 12.9513 12.1627 12.9024 12.1627 12.8413V11.5213C12.1627 11.4603 12.1138 11.4113 12.0527 11.4113H10.7327ZM12.9327 11.4113C12.8717 11.4113 12.8227 11.4603 12.8227 11.5213V12.8413C12.8227 12.9024 12.8717 12.9513 12.9327 12.9513H14.2527C14.3138 12.9513 14.3627 12.9024 14.3627 12.8413V11.5213C14.3627 11.4603 14.3138 11.4113 14.2527 11.4113H12.9327ZM2.04274 11.6313H3.14274V12.7313H2.04274V11.6313ZM4.24274 11.6313H5.34274V12.7313H4.24274V11.6313ZM6.44274 11.6313H7.54274V12.7313H6.44274V11.6313ZM8.64274 11.6313H9.74274V12.7313H8.64274V11.6313ZM10.8427 11.6313H11.9427V12.7313H10.8427V11.6313ZM13.0427 11.6313H14.1427V12.7313H13.0427V11.6313ZM1.93274 13.6113C1.87173 13.6113 1.82274 13.6603 1.82274 13.7213V15.0413C1.82274 15.1024 1.87173 15.1513 1.93274 15.1513H3.25274C3.31376 15.1513 3.36274 15.1024 3.36274 15.0413V13.7213C3.36274 13.6603 3.31376 13.6113 3.25274 13.6113H1.93274ZM4.13274 13.6113C4.07173 13.6113 4.02274 13.6603 4.02274 13.7213V15.0413C4.02274 15.1024 4.07173 15.1513 4.13274 15.1513H5.45274C5.51376 15.1513 5.56274 15.1024 5.56274 15.0413V13.7213C5.56274 13.6603 5.51376 13.6113 5.45274 13.6113H4.13274ZM6.33274 13.6113C6.27173 13.6113 6.22274 13.6603 6.22274 13.7213V15.0413C6.22274 15.1024 6.27173 15.1513 6.33274 15.1513H7.65274C7.71376 15.1513 7.76274 15.1024 7.76274 15.0413V13.7213C7.76274 13.6603 7.71376 13.6113 7.65274 13.6113H6.33274ZM8.53274 13.6113C8.47173 13.6113 8.42274 13.6603 8.42274 13.7213V15.0413C8.42274 15.1024 8.47173 15.1513 8.53274 15.1513H9.63274C9.69376 15.1513 9.74274 15.1024 9.74274 15.0413C9.74274 14.9803 9.69376 14.9313 9.63274 14.9313H8.64274V13.8313H9.74274V14.6013C9.74274 14.6624 9.79173 14.7113 9.85274 14.7113C9.91376 14.7113 9.96274 14.6624 9.96274 14.6013V13.7213C9.96274 13.6603 9.91376 13.6113 9.85274 13.6113H8.53274ZM2.04274 13.8313H3.14274V14.9313H2.04274V13.8313ZM4.24274 13.8313H5.34274V14.9313H4.24274V13.8313ZM6.44274 13.8313H7.54274V14.9313H6.44274V13.8313Z" fill="black"/>
</svg>
