{
    "typeName": "Mutation",
    "fieldName": "updateEmployee",
    "arguments": {
      "input": {
        "username": "test111",
        "name": "Jesus",
        "surname": "Christ",
        "phone": "+123 12312 3",
        "age": "10"
      }
    }
}
