<svg width="18" height="15" viewBox="0 0 18 15" fill="none" xmlns="http://www.w3.org/2000/svg">
  <path d="M17.9482 1.36546L15.2318 14.0944C15.0269 14.9927 14.4925 15.2163 13.7331 14.7931L9.59429 11.7626L7.59724 13.6711C7.37624 13.8907 7.1914 14.0744 6.76547 14.0744L7.06282 9.88601L14.7336 2.9985C15.0671 2.70303 14.6613 2.53933 14.2152 2.83479L4.73225 8.76803L0.649745 7.49834C-0.23828 7.22284 -0.254353 6.61594 0.834583 6.1927L16.803 0.0797875C17.5423 -0.195713 18.1893 0.243491 17.9482 1.36546Z" fill="#231F20"/>
</svg>
