{
    "typeName": "Mutation",
    "fieldName": "createStudent",
    "arguments": {
      "input": {
        "username": "jesus.christ",
        "name": "Jesus",
        "surname": "Christ",
        "email": "jesus.christ@eduway.today",
        "password": "123456"
      }
    }
}
