<svg width="467" height="235" viewBox="0 0 467 235" fill="none" xmlns="http://www.w3.org/2000/svg">
<path opacity="0.08" fill-rule="evenodd" clip-rule="evenodd" d="M455.381 235H7.99999C5.19973 235 3.79961 235 2.73005 234.455C1.78924 233.976 1.02433 233.211 0.544967 232.27C0 231.2 0 229.8 0 227V48.8341H9.41228V37.8363H23.0705V151.508H32.7867V37.8363L39.801 30.9423L46.5979 37.8363V120.933H60.1433V19H96.1857V26.0371H105.969V37.8363H110.43V107.857H122.698V73.8508H141.398V89.0365H153.809V163.629H164.028V180.415L173.851 188.124H180.571V115.991H190.707V96.0276L197.77 30.9423L204.62 96.0276V115.991H215.057V213.433H236.739V188.124L249.225 169.745L264.685 188.124V153.682H278.136V138.358H299.343V96.0276L311.96 86.3158L324.252 96.0276V116.216H374.451V107.857H384.522L395.278 44.2532L404.83 107.857L422.447 147.701L430.312 153.682V194.087H437.484V213.433H455.381V235Z" fill="#E85668"/>
<g opacity="0.5">
<path opacity="0.8" d="M420 42.1247C423.028 46.3437 425.35 48.2905 426.968 47.965C428.585 47.6396 432.026 44.5328 437.291 38.6448" stroke="#1EC9E8" stroke-width="2" stroke-linecap="round"/>
<path d="M443.921 41.1207C444.725 44.3943 446.378 45.7795 448.879 45.2761C451.379 44.7728 453.828 42.5623 456.223 38.6448" stroke="#1EC9E8" stroke-linecap="round"/>
<path opacity="0.8" d="M460.178 28.6226C460.627 30.296 461.475 31.0072 462.723 30.756C463.971 30.5049 465.228 29.37 466.494 27.3514" stroke="#1EC9E8" stroke-linecap="round"/>
<path opacity="0.5" d="M460.178 1.77636C460.452 2.79838 460.97 3.2327 461.732 3.07932C462.494 2.92594 463.262 2.23283 464.035 1" stroke="#1EC9E8" stroke-linecap="round"/>
<path d="M428.593 27.6182C430.229 29.8832 431.477 30.9291 432.336 30.7561C433.196 30.583 435.045 28.9139 437.883 25.7486" stroke="#1EC9E8" stroke-linecap="round"/>
</g>
</svg>
